Host1: http://103.249.23.118:2222 
User: tu
pass: 123456123456
[5:23:56 PM] Paul Davis: http://domain.thuongnhanviet.vn/login
[5:24:06 PM] Paul Davis: ID: drphilshowonline.com
[5:24:10 PM] Paul Davis: pass: kHongbiet